D:\Developer\fogacoop\jbpm\BpmApiCanonical\src\main\java\co\com\soaint\model\DmnModelInfoList.java
D:\Developer\fogacoop\jbpm\BpmApiCanonical\src\main\java\co\com\soaint\dto\ProcessNodesDto.java
D:\Developer\fogacoop\jbpm\BpmApiCanonical\src\main\java\co\com\soaint\dto\InstanceDto.java
D:\Developer\fogacoop\jbpm\BpmApiCanonical\src\main\java\co\com\soaint\dto\ResponseDto.java
D:\Developer\fogacoop\jbpm\BpmApiCanonical\src\main\java\co\com\soaint\model\KieContainers.java
D:\Developer\fogacoop\jbpm\BpmApiCanonical\src\main\java\co\com\soaint\dto\ProcessResponseDto.java
D:\Developer\fogacoop\jbpm\BpmApiCanonical\src\main\java\co\com\soaint\model\DmnEvaluationResult.java
D:\Developer\fogacoop\jbpm\BpmApiCanonical\src\main\java\co\com\soaint\model\KieProcesses.java
D:\Developer\fogacoop\jbpm\BpmApiCanonical\src\main\java\co\com\soaint\model\Release.java
D:\Developer\fogacoop\jbpm\BpmApiCanonical\src\main\java\co\com\soaint\dto\ContainerDto.java
D:\Developer\fogacoop\jbpm\BpmApiCanonical\src\main\java\co\com\soaint\dto\SignalDto.java
D:\Developer\fogacoop\jbpm\BpmApiCanonical\src\main\java\co\com\soaint\dto\TaskDto.java
D:\Developer\fogacoop\jbpm\BpmApiCanonical\src\main\java\co\com\soaint\dto\InputDto.java
D:\Developer\fogacoop\jbpm\BpmApiCanonical\src\main\java\co\com\soaint\model\KieContainer.java
D:\Developer\fogacoop\jbpm\BpmApiCanonical\src\main\java\co\com\soaint\dto\ProcessesDto.java
D:\Developer\fogacoop\jbpm\BpmApiCanonical\src\main\java\co\com\soaint\dto\ProcessRequestDto.java
D:\Developer\fogacoop\jbpm\BpmApiCanonical\src\main\java\co\com\soaint\dto\UserDto.java
D:\Developer\fogacoop\jbpm\BpmApiCanonical\src\main\java\co\com\soaint\model\Result.java
D:\Developer\fogacoop\jbpm\BpmApiCanonical\src\main\java\co\com\soaint\model\Decision.java
D:\Developer\fogacoop\jbpm\BpmApiCanonical\src\main\java\co\com\soaint\dto\NodesDto.java
D:\Developer\fogacoop\jbpm\BpmApiCanonical\src\main\java\co\com\soaint\model\Timestamp.java
D:\Developer\fogacoop\jbpm\BpmApiCanonical\src\main\java\co\com\soaint\model\Response.java
D:\Developer\fogacoop\jbpm\BpmApiCanonical\src\main\java\co\com\soaint\model\Scanner.java
D:\Developer\fogacoop\jbpm\BpmApiCanonical\src\main\java\co\com\soaint\model\TaskSummary.java
D:\Developer\fogacoop\jbpm\BpmApiCanonical\src\main\java\co\com\soaint\model\Input.java
D:\Developer\fogacoop\jbpm\BpmApiCanonical\src\main\java\co\com\soaint\dto\MessagesDto.java
D:\Developer\fogacoop\jbpm\BpmApiCanonical\src\main\java\co\com\soaint\model\Node.java
D:\Developer\fogacoop\jbpm\BpmApiCanonical\src\main\java\co\com\soaint\model\ProcessNodes.java
D:\Developer\fogacoop\jbpm\BpmApiCanonical\src\main\java\co\com\soaint\model\InputdataTypeRef.java
D:\Developer\fogacoop\jbpm\BpmApiCanonical\src\main\java\co\com\soaint\model\Model.java
D:\Developer\fogacoop\jbpm\BpmApiCanonical\src\main\java\co\com\soaint\model\ProcessesInstances.java
D:\Developer\fogacoop\jbpm\BpmApiCanonical\src\main\java\co\com\soaint\dto\DecisionDto.java
D:\Developer\fogacoop\jbpm\BpmApiCanonical\src\main\java\co\com\soaint\dto\RulesDto.java
D:\Developer\fogacoop\jbpm\BpmApiCanonical\src\main\java\co\com\soaint\model\KieProcess.java
D:\Developer\fogacoop\jbpm\BpmApiCanonical\src\main\java\co\com\soaint\model\Message.java
D:\Developer\fogacoop\jbpm\BpmApiCanonical\src\main\java\co\com\soaint\dto\ValueDto.java
D:\Developer\fogacoop\jbpm\BpmApiCanonical\src\main\java\co\com\soaint\dto\ParametrosDto.java
D:\Developer\fogacoop\jbpm\BpmApiCanonical\src\main\java\co\com\soaint\model\TaskResponse.java
D:\Developer\fogacoop\jbpm\BpmApiCanonical\src\main\java\co\com\soaint\model\ConfigItem.java
